{
	"cur":{
		"iso":"EUR",
		"sym":"€"
	},
	"dte":{
		"dte":"##j##.##m##.##Y##",
		"dte_long":"##j##. ##M## ##Y##",
		"tme":"##G##.##i##",
		"tme_sec":"##G##.##i##.##s##"
	},
	"phn":{
		"code":"43",
		"reg":"",
		"frm":""
	},
	"postal":{
		"cityline":"##p## ##t##",
		"lbl":"PLZ",
		"reg":"([0-9]{4})"
	},
	"weekstart":"mon"
}
