{
	"cur":{
		"iso":"BDT",
		"sym":"৳"
	},
	"dte":{
		"dte":"##j##/##m##/##Y##",
		"tme":"##g##:##i##",
		"tme_sec":"##g##:##i##:##s##",
		"tme_mde":"12",
		"tme_am":"##t## am",
		"tme_pm":"##t## pm"
	},
	"phn":{
		"code":"880",
		"reg":"",
		"frm":""
	},
	"postal":{
		"cityline":"##t## - ##p##",
		"reg":"([\\d]{4})"
	},
	"weekstart":"mon"
}
