{
	"cur":{
		"iso":"EUR",
		"sym":"€"
	},
	"dte":{
		"dte":"##j##.##n##.##Y##"
	},
	"phn":{
		"code":"32",
		"reg":"",
		"frm":""
	},
	"postal":{
		"cityline":"##p## ##t##",
		"reg":"([\\d]{4})"
	},
	"weekstart":"mon"
}
