{
	"cur":{
		"iso":"BMD",
		"sym":"$"
	},
	"phn":{
		"code":"1-441",
		"reg":"",
		"frm":""
	},
	"postal":{
		"reg":"([a-zA-Z]{2})+[ -]?([a-zA-Z0-9]{2})+",
		"frm":"a b"
	},
	"weekstart":"mon"
}
