{
	"cur":{
		"iso":"CAD",
		"sym":"$"
	},
	"phn":{
		"code":"1",
		"reg":"[(]?([0-9]{3})[)]?[ \\.-]?([0-9]{3})[ \\.-]?([0-9]{4})",
		"frm":"a-b-c"
	},
	"postal":{
		"cityline":"##t##, ##s## ##p##",
		"reg":"([ABCEGHJKLMNPRSTVXY]\\d[ABCEGHJ-NPRSTV-Z])+[ -]?(\\d[ABCEGHJ-NPRSTV-Z]\\d)+",
		"frm":"a b"
	},
	"prov":{
		"lbl":"Province",
		"list":{
			"AB":{
				"en":{"n":"Alberta", "a":"Alta."},
				"fr":{"n":"Alberta", "a":"Alb."}
			},
			"BC":{
				"en":{"n":"British Columbia", "a":"B.C."},
				"fr":{ "n":"Colombie-Britannique", "a":"C.-B."}
			},
			"MB":{
				"en":{"n":"Manitoba", "a":"Man."},
				"fr":{"n":"Manitoba", "a":"Man."}
			},
			"NB":{
				"en":{"n":"New Brunswick", "a":"N.B."},
				"fr":{"n":"Nouveau-Brunswick", "a":"N.-B."}
			},
			"NL":{
				"en":{"n":"Newfoundland and Labrador", "a":"N.L."},
				"fr":{"n":"Terre-Neuve-et-Labrador", "a":"T.-N.-L."}
			},
			"NS":{
				"en":{"n":"Nova Scotia", "a":"N.S."},
				"fr":{"n":"Nouvelle-Écosse", "a":"N.-É."}
			},
			"NT":{
				"en":{"n":"Northwest Territories", "a":"N.W.T."},
				"fr":{"n":"Territoires du Nord-Ouest", "a":"T.N."}
			},
			"NU":{
				"en":{"n":"Nunavut", "a":"Nvt."},
				"fr":{"n":"Nunavut", "a":"Nt"}
			},
			"ON":{
				"en":{"n":"Ontario", "a":"Ont."},
				"fr":{"n":"Ontario", "a":"Ont."}
			},
			"PE":{
				"en":{"n":"Prince Edward Island", "a":"P.E.I."},
				"fr":{"n":"Île-du-Prince-Édouard", "a":"Î.-P.-É."}
			},
			"QC":{
				"en":{"n":"Quebec", "a":"Que."},
				"fr":{"n":"Québec", "a":"Qc"}
			},
			"SK":{
				"en":{"n":"Saskatchewan", "a":"Sask."},
				"fr":{"n":"Saskatchewan", "a":"Sask."}
			},
			"YT":{
				"en":{"n":"Yukon", "a":"Y.T."},
				"fr":{"n":"Nunavut", "a":"Yn"}
			}
		}
	},
	"weekstart":"sun"
}
