{
	"cur":{
		"iso":"CHF",
		"sym":"CHF"
	},
	"dte":{
		"dte":"##j##.##m##.##Y##",
		"dte_long":"##j##. ##M## ##Y##",
		"tme":"##G##.##i##",
		"tme_sec":"##G##.##i##.##s##"
	},
	"phn":{
		"code":"41",
		"reg":"",
		"frm":""
	},
	"postal":{
		"cityline":"##p## ##t##",
		"lbl":{
			"de":"PLZ",
			"fr":"NPA",
			"it":"NPA"
		},
		"reg":"([0-9]{4})+"
	},
	"weekstart":"mon"
}
