{
	"cur":{
		"iso":"EUR",
		"sym":"€"
	},
	"dte":{
		"dte":"##j##/##m##/##Y##",
		"tme":"##G## h ##i##"
	},
	"phn":{
		"code":"33",
		"reg":"",
		"frm":""
	},
	"postal":{
		"cityline":"##p## ##t##",
		"reg":"([0-9]{5})+"
	}
}
