{
	"cur":{
		"iso":"GBP",
		"sym":"£"
	},
	"dte":{
		"dte":"##j##/##m##/##Y##",
		"tme":"##g##:##i##",
		"tme_sec":"##g##:##i##:##s##",
		"tme_mde":"12",
		"tme_am":"##t## am",
		"tme_pm":"##t## pm"
	},
	"phn":{
		"code":"44",
		"reg":"",
		"frm":""
	},
	"postal":{
		"reg":"([ABCEGHJKLMNPRSTVXY]{1}[0-9]{1}[ABCEGHJ-NPRSTV-Z]{1})+[ -]?([0-9]{1}[ABCEGHJ-NPRSTV-Z]{1}[0-9]{1})+",
		"frm":"a b"
	},
	"weekstart":"mon"
}
