{
	"cur":{
		"iso":"KRW",
		"sym":"₩"
	},
	"dte":{
		"dte":"##Y##-##n##-##d##",
		"dte_long":"##Y##년 ##m##월 ##j##일",
		"tme":"##g##시 ##i##분",
		"tme_sec":"##g##시 ##i##분 ##s##초",
		"tme_mde":"12",
		"tme_am":"AM ##t##",
		"tme_pm":"PM ##t##"
	},
	"phn":{
		"code":"82",
		"reg":"",
		"frm":""
	},
	"postal":{
		"reg":"([0-9]{5})+"
	},
	"weekstart":"mon"
}
