{
	"cur":{
		"iso":"CHF",
		"sym":"CHF"
	},
	"phn":{
		"code":"423",
		"reg":"",
		"frm":""
	},
	"postal":{
		"cityline":"##p## ##t##",
		"lbl":"PLZ",
		"reg":"([0-9]{4})+"
	},
	"weekstart":"mon"
}
