{
	"cur":{
		"iso":"MDL",
		"sym":"L"
	},
	"phn":{
		"code":"373",
		"reg":"",
		"frm":""
	},
	"postal":{
		"cityline":"##p## ##t##",
		"reg":"([MD])+[ -]?([0-9]{4})+"
	},
	"weekstart":"mon"
}
