{
	"cur":{
		"iso":"EUR",
		"sym":"€"
	},
	"dte":{
		"dte":"##j##/##m##/##Y##",
		"tme":"##g##:##i##",
		"tme_sec":"##g##:##i##:##s##",
		"tme_mde":"12",
		"tme_am":"##t## am",
		"tme_pm":"##t## pm"
	},
	"phn":{
		"code":"356",
		"reg":"",
		"frm":""
	},
	"postal":{
		"reg":"([a-zA-Z]{3})+[ -]?([0-9]{4})?",
		"frm":"a b"
	},
	"weekstart":"mon"
}
