{
	"cur":{
		"iso":"EUR",
		"sym":"€"
	},
	"phn":{
		"code":"421",
		"reg":"",
		"frm":""
	},
	"postal":{
		"cityline":"##p## ##t##",
		"lbl":"PSČ",
		"reg":"([0-9]{3})+[ -]?([0-9]{2})+",
		"frm":"a b"
	},
	"weekstart":"mon"
}
