{
	"cur":{
		"iso":"THB",
		"sym":"฿"
	},
	"dte":{
		"dte":"##j##/##m##/##Y##"
	},
	"phn":{
		"code":"66",
		"reg":"",
		"frm":""
	},
	"postal":{
		"reg":"([0-9]{5})+"
	},
	"weekstart":"mon"
}
