{
	"cur":{
		"iso":"UAH",
		"sym":"₴"
	},
	"dte":{
		"dte":"##j##.##m##.##y##",
		"dte_long":"##j## ##M## ##Y## р."
	},
	"phn":{
		"code":"688",
		"reg":"",
		"frm":""
	},
	"postal":{
		"cityline":"##t##_##p##",
		"reg":"([0-9]{5})+"
	},
	"weekstart":"mon"
}
