{
	"cur":{
		"iso":"VND",
		"sym":"₫"
	},
	"dte":{
		"dte":"##j##/##m##/##Y##",
		"tme":"##G##h##i##"
	},
	"phn":{
		"code":"84",
		"reg":"",
		"frm":""
	},
	"postal":{
		"reg":"([0-9]{5})+"
	},
	"weekstart":"mon"
}
